name,phone
Hood Joyner,19835813
Hernandez Dominguez,18205403
Neal Morin,1820457203
Chambers Roach,19774042
Holmes Hobbs,197747439
May Berg,18884463
Amalia Mcclain,187850123
Estrada Morales,1878473349
Holt Wheeler,19155273
Barber Leblanc,18745003
Judith Beasley,19355452
Roy Livingston,191940922
Evangeline Haynes,1831559394
Christine Hampton,18034583
Ballard Camacho,18524213
Robin Clay,189045034
Peters Hale,1874574397
Vickie Guerrero,183740232
Woods Patterson,19625642
Faye Alvarez,19004302
Gilbert Dennis,19854222
Daphne Riley,1824497361
Hester Robles,1985407218
Jeanette Clark,18045883
Langley Hanson,1810468264
Beverly Santana,1972438378
Carole Burks,18404643
Lourdes Contreras,1901551328
Sherry Stewart,1845528349
Keisha Anderson,18195232
Potter Holmes,1803553294
Booth Gonzales,1915455348
Trevino Barron,18944442
Valentine Chase,1924440224
Grace Wynn,182557921
Teri Hood,18604433
Berry Lloyd,197857232
Michele Acosta,193552637
Kelly Ross,183350023
Mildred Newton,189548730
Mara Shaffer,197453627
Lacey Salinas,1823486286
Earlene Curtis,19985912
Koch Whitfield,18765322
Gallegos Williamson,1895532233
Crane Thompson,1934582354
Cunningham Cole,1820562351
Goodwin Lee,186443629
Maryann Dyer,18664753
Chasity Garner,193547527
Reva Sargent,194443939
Jocelyn Vaughan,197059529
Garcia Fitzpatrick,1939433233
Mallory Beach,1931419269
Joseph Mckenzie,18885552
Poole Snider,19445153
Jennie Morrison,1896542380
Mayra Stein,18044183
Howell Sharpe,1994491267
Savannah Walter,185358223
Jordan Santos,1965598275
Kimberly Dodson,1956452379
Katelyn Graham,186643332
Webster Buckner,19695453
Caldwell Berger,185841837
Margery Wright,18884273
Mathis Cash,18445622
Reilly Heath,187742025
Steele Boyle,187445330
Hopper Wilson,18065103
Deidre Frye,192345721
Barron Shepard,1849492247
Kline Avery,18664053
Cheri Lawrence,1876487206
Diane English,18585613
Jeanine Freeman,196850632
Patel Harris,19445002
Gardner Dunlap,1875514319
Hendrix Drake,186851437
Hoover Paul,19426003
Maxwell Cooke,1862446201
Delia Goodman,198545131
Bobbie Hoffman,19185812
Barton Beck,1859565235
Wise Jensen,1889599275
Norton Rosales,1985565235
Bird Phelps,1852457356
Leola Hill,19274113
House Mckee,18105162
Patty Holden,180551032
Baker Collier,1800499396
Davis Cain,189343526
Patricia Mckay,1895405275
Cook Harrison,1816498344
Kayla Elliott,1987445396
Etta Hansen,1854534342
Arnold Oconnor,18645033
Carmela Wood,18495062
Janis Kaufman,18694983
Roach Manning,197153435
Williamson Christensen,19104462
French Herrera,187749522
Marla Olson,19094593
Forbes Rosario,186453538
Henson Ewing,18005862
Greene Wells,1969581211
Theresa Gillespie,193455434
Dunlap Edwards,1913408317
Roberts Shaw,189245537
Angelina Summers,194546731
Pansy Macdonald,18745052
Tessa Bailey,1854416271
Duffy Mccullough,19044763
Santos Morgan,190050334
Pam Shepherd,19865552
Mckenzie Zimmerman,19835712
Angelica Holman,199941336
Flossie Brennan,18934122
Beasley Stokes,199148431
Bates Washington,194254139
Celeste Wagner,18634042
Adams Ortiz,18484832
Ebony Knox,188540135
Lindsay Rivers,1824466378
Wilma Schwartz,18364682
Lee Tanner,18134913
Perry Knowles,1982434291
Schwartz Estrada,1838448291
Dawson Parsons,1862574290
Barnett Brady,180646523
Juliet Macias,195358730
Ratliff Cook,18585742
Saunders Sweeney,182448029
Rodgers Pacheco,1980546250
Juarez Downs,19284082
Yates Sims,1996559288
Young Monroe,184550224
Ana Pennington,187347528
June Henderson,1912449236
Rose Mitchell,18015822
Carissa Diaz,186151326
Augusta Franklin,1931415395
Farley Pope,19815723
Pruitt Mcintyre,19965202
Anne Allison,1991418280
Moody Sullivan,197552628
Hatfield Pena,18505692
Magdalena Cooley,187848538
Beverley Roberson,1873550330
Candice Wooten,1989495249
Marci Espinoza,19365522
Middleton Farmer,18264863
Marquez Maldonado,1927533254
Janelle Guthrie,1864533332
Audra Fischer,199944623
Kristine Frederick,19824583
Melinda Cote,196449734
Laura Kemp,19644493
Hansen Alston,19014442
Cindy Smith,1841571385
Petersen Spencer,18554403
Shields Mercer,197950237
Munoz Zamora,183953926
Johnson Peters,1887540351
Riggs Mcconnell,18274812
Ruthie Cunningham,18904222
Mayo Miranda,1937470341
Violet Hoover,195549822
Deleon Benjamin,191140720
Caroline Gutierrez,197845322
Frazier Blanchard,1853587245
Cabrera Gardner,1867550217
Blanche Dillard,18275762
Jenny Sheppard,18015272
Fernandez Mckinney,1997517264
Donaldson Case,182255924
Mercedes Hurst,193756425
Chase Castaneda,18955563
Clark Landry,19915772
Obrien Duran,1872437361
Hanson Sherman,1983473247
Cantu Huff,1804490296
Jordan Flynn,19176003
Moses Haley,1845535270
Josephine Vargas,184445229
Sellers Bond,1824407237
Kathryn Blevins,199055323
Georgina Lara,18784452
Frederick Decker,19345853
Thelma Morse,19644542
Nichols Goff,187541832
Luisa Horton,1939528272
Sharlene Price,1801487222
Figueroa Joseph,18044803
Ramsey Deleon,1969452241
Gabrielle Albert,18445153
Carney Conley,1847508302
Dejesus Glover,183448635
Letitia Sharp,1897462345
Angelia Fletcher,1826405371
Rocha Conrad,199348020
Liz Koch,1823590291
Cline Mcbride,188143421
Hensley David,19304953
Donna Pearson,1854530371
Ila England,19805413
Bryan Page,189153438
Lea Mccarty,18674973
Scott Mills,1991544317
Francis Mueller,188252334
Osborne Olsen,19644592
Jaclyn Torres,184855720
Lina Le,1978591356
Freeman Kim,185042739
Vega Mcgee,19455492
Collier Buck,196259535
Spencer Holder,186656939
Avis Suarez,1817541363
Charity Nolan,184840434
Bernadine Cochran,19805383
Tamera Moreno,1982474248
Wendy Castro,1927551272
Hodges Reese,18624122
Burton Lawson,1857416208
Herminia Pugh,191448535
Marylou Dejesus,18974672
Natalie Hurley,18274093
Bowers Rivas,19225363
Best Fox,192656037
Bishop Hensley,1931551275
Kasey Craft,18715093
Long Mcneil,19045773
Erika Nguyen,19695342
Marquita Stafford,190259226
Parsons Terrell,189347234
Ina Hendricks,1940575285
Lilly Jacobs,19664832
Hardin Rogers,1971502250
Gloria Stanley,1997508258
Mamie Neal,19255293
Morris Christian,18395123
Kathie Duke,18565222
Brittney Cobb,18174402
Judy Mathews,1987400266
Downs Powell,1991487253
Mcfarland Mcgowan,18054073
Cara Brown,19664283
Winnie Gallagher,1846575372
Helene Vinson,184141433
Franklin Leon,1910403254
Ashley Gray,181958023
Wendi Robertson,1842402289
Dunn Montgomery,1992431314
Roxie Donovan,1892414311
Carmella Wilkins,186153537
Myrtle Fleming,1928467327
Bridgett Oneil,181359336
Stevens Woods,1931537236
Sosa Curry,19435243
Hamilton Carrillo,18465593
Ramos Kelly,18385663
Ernestine Carpenter,181956039
Paul Bell,1939477231
Sharp Ryan,18384263
Fry Avila,18284692
Howard Hatfield,199959623
Dennis Russo,19125592
Melba Giles,18085932
Bond Byers,1881591275
Battle Tyson,181057332
Mattie Hammond,1916475398
Waller Eaton,187550227
Francine Rowe,190454038
Leann Yates,19264752
Arlene Rodriguez,193458028
Kristi Jones,185458634
Briana Dickson,181043721
Juana Ayers,19594023
Aida Lester,1826584241
Lou Branch,1812558363
Reid Maynard,1952483272
Maryanne Shields,18545682
Juanita Bentley,184956638
Farmer Bradford,18955492
Clarke Donaldson,19434742
Daniel Cardenas,1874421312
Madden Herring,1891469355
Lisa Norris,18384543
Nicholson Wolfe,19055742
Alexis Wade,185949135
Alyssa Collins,198957225
Conley Watts,1944422342
Brittany Phillips,195440024
Katheryn Stevens,18175892
Dillard Richards,18884493
Holman Mcmillan,19954423
Holland Simmons,194957038
Guzman Combs,19625293
Fuentes Winters,192141825
Sampson Santiago,196955720
Merle Calhoun,1893568214
Gentry Marks,1983508299
Jo Mendoza,1827402327
Hickman Harmon,19614222
Dorothy Mcclure,1880564202
Macdonald Nash,180551327
Lela Ball,1840591386
Tania Finley,184449820
Myra Blackwell,191144238
Krista Cox,18984273
Dale Maxwell,1935477349
Flora Hicks,189458223
Barker Odom,196546032
Ayers Hebert,188350429
Mai Lindsey,19675762
Willie Reilly,1884532351
Levine James,190946925
Mullen Sears,1800489264
Morrow Battle,192545627
Valdez Mayer,1992477385
Marva Floyd,185049431
Sawyer Salazar,1861481228
Sherman Beard,186142833
Bullock Ruiz,1943430241
Roslyn Austin,186044637
Chelsea Haney,183948635
Geneva Finch,182344024
Lawanda Gibbs,192144028
Kramer Reid,196345224
Richardson Bass,1862553315
Estela Odonnell,19625112
Shannon Jennings,1867482317
Jimenez Allen,1894524220
Greta Cohen,1912501321
Meadows Tucker,1869422357
Eleanor Kent,1827505372
Diaz Larsen,1872466229
Lawrence Perez,18414913
Mcgowan Harding,18224993
Irma West,195549029
Lynette Good,1906476274
Jimmie Sykes,1967467368
Woodard Jacobson,1814502364
Reyna Ramos,183242330
Newton Aguirre,19885853
Jerry Wong,1967494217
Spence Bates,19324323
Christian Key,1908572373
Iris Hull,199458024
Paige Ashley,186356325
Ramirez Blake,19495113
Taylor Huffman,1864401335
Polly Chapman,19674233
Anna Dixon,199944924
Ophelia Mccormick,192953326
Maude Jackson,1842536277
Kristin Joyce,1970408293
Mccarty Hughes,18054442
Vargas Browning,18024172
Whitley Oneal,18374122
Parrish Richmond,18025572
Mendez Henson,19055432
Desiree Blair,18315593
Millicent Riddle,198040627
Glenn Oliver,185854434
Dolores Strong,1885450219
Joyner Greene,18924603
Johnnie Meadows,199349233
Keith Kane,194558332
Dina Anthony,196858923
Atkinson Blankenship,191857033
Addie Bowen,1955586238
Petty Barry,18065543
Gray Rodriquez,198255633
Maria Warren,18435793
Hodge Rosa,19115672
Bridget Harper,19254343
Lynn Frank,1813448220
Craig Lewis,1843409322
Albert Byrd,18045123
Robles Juarez,1812543325
Holcomb Johnston,182341820
Audrey Gross,1895454312
Cain Taylor,197643839
Cassandra Foreman,18394953
Mccoy Bishop,1974460236
Kemp Lang,190042335
Harrison Townsend,18165412
Larsen Leach,1995488290
Conway Ochoa,191552627
Joyce Vance,19965913
Alice Carey,1852449353
Serena Burke,1919435366
Darcy Holloway,194254522
Gallagher Golden,18404193
Raquel Parks,190548932
Sheree Castillo,19534103
Salas Chang,18214633
Becky Gill,190857126
Skinner Everett,187751328
Tommie Barker,186640627
Beach Schroeder,19965213
Billie Rhodes,194459331
Geraldine Henry,18144263
Leslie Pruitt,193051023
Russell Weeks,19495323
Glenna Pate,1931468347
Shirley Shannon,194140525
Brandi Howard,1974493393
Tamara Andrews,185755031
Hartman Baldwin,195352829
Maricela Strickland,1988411223
Callahan Patton,1970504340
Pauline Stephenson,19805103
Yvette Chambers,185840222
James Duffy,188960036
Sheena Raymond,1966468345
Matthews King,195455237
Tillman Wilkinson,1922529366
Stafford Keller,187248321
Collins Figueroa,187450028
Hyde Carson,1802533306
Juliana Weber,1930564339
Randall Luna,181251721
Lee Valentine,192240128
Newman Dorsey,187147736
Olivia Osborn,1971453331
Rita Kelley,18895742
Paulette Huber,194254433
Marcy Holcomb,18884792
Horne Ortega,1971450240
Welch Gould,18815703
Rosario Gilbert,194258133
Ursula Bennett,183548337
Leila Maddox,1843591247
Maryellen Mcdonald,190959837
Corina Snow,1835571336
Lorraine Reynolds,18745052
Ellis Clayton,190259632
Avila Callahan,184244536
Lydia Turner,18205832
Sykes Payne,18444133
Sylvia Massey,18995142
Wolf Harrington,1831409317
Carey Mason,19484543
Faith Whitney,184250326
Harriet Hayes,189853225
Christy Sellers,19135462
Medina Hartman,1811470379
Nanette Morris,19754473
Marissa Griffith,1988483246
Loretta Merritt,19584573
Georgia Garrett,182057229
Edith Velasquez,18924043
Muriel Murray,1851444308
Ferrell Moss,184458426
Chandler Moore,1969405381
Lakeisha Foster,189950739
Hilda Stevenson,1994579329
Flynn Franco,197349439
Castro Oneill,1982512212
Marina Grant,1848517331
Leah Boyer,18284772
Banks Munoz,1904469291
Berta Nieves,193952832
Lancaster Barlow,192660036
Ayala Porter,1851462243
Jackie Fowler,180145939
Marlene Richard,1921405384
Booker Garcia,194947129
Christensen Horn,1810530267
Sears Barrett,195447632
Alma Kramer,197556020
Gayle Hudson,18544532
Sherri Vincent,183158737
Higgins Faulkner,1834541263
Burris Bean,19975592
Nellie Miles,191549023
Lillie Hodge,19665832
Farrell Johns,183354626
Annette Mcfadden,1918434249
Vera Green,19965163
Corrine Becker,1842421230
Eula Gomez,18035592
Luna Crosby,190554336
Estelle Malone,19825853
Mona Alvarado,18154773
Mavis Petersen,1805490399
Ronda Doyle,18165173
Cassie Harrell,19624952
Salazar Ford,1832600324
Nadine Dotson,1860548331
Fanny Fry,1848502231
Wall Holland,193353225
Sonia Savage,180145137
Roman Lindsay,1907402292
Lott Marquez,18304393
Mcgee Patrick,1900556279
Klein Romero,197953138
Kris Salas,19925462
Cash Pace,19625503
Kelly Stephens,18154933
Reba Mooney,18685602
Jewell Alford,189147429
Conrad Lynn,19564292
Sexton Walsh,186643328
Rosario Guzman,1893413206
Ashlee Lucas,19854462
Cristina Barber,184757739
Nadia Robinson,18815933
Dorsey Carver,19625202
Conner Roth,1807594382
Singleton Mcdowell,190754334
Lara Fuentes,180850729
Sanford Wiggins,196542126
Talley Hancock,18585243
Hunt Colon,1803579328
Wagner Cortez,1977440278
Vonda Hays,1864504249
Gretchen Newman,180445923
Bonner Buchanan,194748629
Alford Mercado,1831459320
Pearl Bradley,19395033
Adeline Dalton,186147537
Joan Carney,1977538215
Lottie Farley,18524272
Cox Kirk,19084282
Stone Kirkland,185254624
Leblanc Alexander,196555830
Miranda Valenzuela,18535912
Francesca Church,199940837
Carla Schmidt,19325183
Eliza Gentry,19894872
Yesenia Perkins,19184583
Jessica Sexton,19384813
Alexandria Sparks,1919589338
Lorrie Ray,19714192
Le Lowery,1946579293
Martina Carroll,19555153
Bowman Hernandez,1958495201
Mabel Burch,19575563
Jannie Morton,1966530393
Whitehead Forbes,180858521
Colon Coleman,19504113
Alicia Tran,19135463
Jacobson Burnett,186051729
Gonzales Mathis,183153938
Suzette Poole,186453131
Helen Petty,196144729
Arline Martinez,1805563257
Hebert Parrish,1863575352
Emily Chan,190154832
Nixon Hopper,181744629
Margarita Whitley,1824404365
Alyce Travis,1959539308
Latisha Sawyer,18364192
Freida Coffey,198255833
Golden Mayo,183558335
Eunice Sosa,19384063
Elsa Ferguson,19474912
Sonja Farrell,1949583244
Roberta Brock,1926543231
Olson Talley,184058921
Rosalyn Hamilton,1892585391
Acevedo Simpson,1868447272
Morse Tillman,1926588263
Trujillo Barnett,18915953
Julia Thomas,1804558349
Shelly Harvey,19625403
Finch Carter,1952496345
Ellison Mejia,188448428
Chaney May,19684232
Clay Clemons,19094963
Solomon Potter,18904763
Oneil Mclean,191245430
Kathrine Berry,187047837
Sloan Mcguire,19154483
Maxine Banks,19405972
Terrell Mann,181752333
Leach Burns,18034113
Nguyen Whitaker,19664023
Johanna Stone,19675363
Tammie Fuller,19485502
Hall Ratliff,19965512
Olga Ramirez,191057935
Sue Rich,19234703
Naomi Randolph,1892408320
Stacy Ellison,1844411250
Foreman Guerra,1991477205
Phoebe Campos,197854525
Blair Bullock,18155243
Rosie Jordan,187054938
Wolfe Saunders,192754532
Oliver Murphy,184558832
Melanie Walters,18035742
Wiley Kerr,185545921
Katina Puckett,19755262
Mercer Scott,192757638
Felicia Montoya,19444952
Cummings Terry,1823592254
Pat Skinner,19974192
Alta Dawson,19264242
Mueller Cruz,1835562322
April Slater,194847123
Bell Knapp,18714363
Sherrie Rios,19925413
Wilkinson Gay,196251537
Lora Kidd,19245383
Randi Lane,192255423
Knowles Charles,1990452329
Tammy Simon,19874102
Jacobs Nichols,183640422
Dalton Ferrell,18835932
Graham Brewer,191359423
Krystal Valdez,19535902
Ellen Norman,1938512204
Cecelia Norton,18865283
Katherine Reed,19005312
Leigh Owen,192947921
Gilliam Nixon,19124403
Sybil Nelson,18555832
Renee Hickman,1817408344
Campbell Melendez,1839408397
Villarreal Waters,19755842
Ladonna Daugherty,1929590213
Kenya Hart,199759736
Black Wilder,18805702
Knight Pickett,188651923
Rosemary Chavez,185951132
Pacheco Trevino,1800411381
Britney Davis,192846031
Dena Ramsey,1870472376
Lindsey Lowe,187556031
Douglas Hawkins,19765772
Louisa Woodward,189448226
Slater Wilcox,1938485329
Gilda Velazquez,19664363
Livingston Woodard,1891464311
Agnes Dean,1963562396
Edwards Rowland,19044183
Cannon Randall,1872554355
Alyson Mcmahon,18145652
Carolina Velez,190248220
Jenifer Holt,1944505254
Thomas Hinton,184056423
Althea Jefferson,18674702
Patterson Higgins,19934032
Randolph Ayala,19554672
Genevieve Sloan,194746027
Tamra Horne,1840574361
Tanisha Barnes,18554952
Bauer Keith,192342631
Avery Peterson,19864293
Dee Compton,196850534
Autumn Sutton,1934402294
Bright Hunter,18956002
Hope Wolf,19614322
Horton Soto,186345622
Becker Casey,182158523
Norma Conway,1859596318
Rowland Snyder,19565002
Jeri Peck,185655635
Bernice Mendez,1884585253
Sharron Abbott,196649937
Hull Fulton,1813539229
Lily Vaughn,1939405371
Paula Riggs,1892489254
Regina Moon,1864570319
Veronica Michael,1958520248
Rae Hodges,189454038
Cherie Barrera,1806430238
Vaughan Hess,184459621
Pugh Myers,194344539
Mcclain Fisher,1839556203
Delores Steele,1892451349
Rebekah Chandler,19144352
Crosby Humphrey,1887457292
Jodie Galloway,193953822
Gibbs Hardy,18345283
Frost Stuart,1915563282
Shannon Duncan,18435793
Mcleod Lopez,187842926
Beryl Navarro,198441937
Haynes Burris,19166002
Meredith Rocha,1861456281
Dawn Marsh,197555421
Marilyn Francis,191751022
Frieda Levy,192059623
Gertrude Sanders,19324453
Samantha Mcfarland,1826533308
Clare Flores,18105592
Sheppard Cherry,19044963
Stacie Atkins,189251032
Patrica Atkinson,19795993
Fuller Langley,1905490282
Bernadette Moody,18835862
Sheila Vasquez,190943926
Camille Hendrix,1977477310
Lambert Shelton,192544821
Chan Nielsen,1830595280
Robbins Klein,192750538
Snow Wiley,198651834
Buchanan Barr,18505082
Odonnell Roman,189141726
Wood Mack,189145629
Garza Patel,19935213
Hogan Reeves,183952737
Winifred Long,1911408328
Esmeralda Whitehead,1912453368
Jody Gaines,184846830
Norman Bonner,1856439216
Joanne Kline,19274063
William Gibson,182052121
Thornton Orr,1948452220
Everett Quinn,19225002
Moran Watkins,1847478355
Aimee Arnold,18035953
Olsen Bray,1962480214
Dale Villarreal,19525323
Lenora Watson,192946935
Hillary Weaver,186644020
Stark Pollard,191148239
Schultz Leonard,188643839
Francisca Jenkins,18794552
Deanna Rollins,19575492
Alston Moses,190954323
Pope Lancaster,19075932
Hollie Daniel,19585043
Nash Frost,19455083
Oneill Bowers,1934477204
Delaney House,194353838
Pearson Dunn,1829445267
Rachael Cannon,1877432264
Navarro Bowman,1852481259
Madge Baxter,18054923
Baird Serrano,19834823
Cochran Pittman,188346030
Burke Fitzgerald,185748933
Marisol Cummings,182156436
Hughes Kinney,18485542
Lynn Noble,199341728
Hancock Ingram,195347421
Guerra Wallace,182358623
Mercado Boone,1894417282
Knapp Russell,18385132
Leonor Willis,193246628
Wanda Delaney,18556002
Duran Moran,1804556324
Glass Solomon,19395382
Dana Mcknight,18914332
Mcneil Campbell,1862488327
James Weiss,18165502
Duke Hutchinson,19355682
Richard Fernandez,180059327
Dianna Ware,1939503213
Vivian Estes,19314073
Kristie Lynch,19345613
Meagan Yang,1932511243
Perkins Durham,1922479200
Kirk Bradshaw,190557238
Mack Caldwell,1999473377
Fay Sandoval,1809586360
Waters Thornton,18004973
Queen Walton,18014883
Watts Glass,1907521349
Rosa Cleveland,18524082
Glover Webster,1869428210
Robinson Hewitt,199852638
Aline Matthews,1870469398
Haney Sampson,18275423
Burks Hogan,1975461341
Elinor Burgess,1936581215
Romero Mccoy,18475172
Rosella Mcpherson,18704212
Jaime White,1877533228
Moss Osborne,1921441278
Kerri Middleton,18704563
Davidson Goodwin,182144036
Ferguson Ellis,199841624
Michael Meyers,1937458339
Hahn Wall,19835262
Kerry Gamble,19245813
Tracie Gonzalez,1827532306
Angelique Vazquez,190357435
Jasmine Johnson,181840023
Amanda Lyons,1965529221
Fran Obrien,18384912
Wright Sanchez,19014922
Crawford Chen,180253224
Laverne Rush,183848825
Guerrero Delacruz,182142027
Austin Bush,181657428
Church Kennedy,1982432319
Little Welch,19445932
Lewis Gilmore,193054123
Casey Adkins,1846406261
Pratt Copeland,18395532
Mae Logan,1984576267
Gillespie Britt,19565833
Mable Boyd,1999436215
Cherry Lambert,1843485353
Powers Small,1936441314
Daugherty Schneider,1838406212
Blackburn Martin,19284292
Odessa Herman,1877578268
Carlson Young,1821452241
Lucas Witt,199241721
Vicky Hahn,199256826
Isabella Spence,1949505251
Karla Burt,184740128
Colleen Cooper,198856120
Brandie Madden,18134413
Galloway Calderon,1936577217
Clarice Parker,19305823
Moore Crawford,187348928
Cathleen Pierce,18555232
White Wilkerson,18295302
Rodriguez Tyler,1905549391
Minerva Hall,18795632
Katharine William,195552033
Moreno Underwood,1954471246
Pearlie Hayden,194646420
West Kirby,18384163
Tracy Ballard,1888495211
Estella Schultz,1812486241
Hawkins Baird,19994383
Case Justice,196344431
Dorthy Daniels,18235722
Tina Potts,18565693
Dora Bartlett,1830540346
Sasha Craig,188344823
Erma Nicholson,18154523
Hannah Rojas,1968596321
Madeline Cameron,197547539
Carly Bryant,19935992
Levy Booker,195140331
Karen Grimes,18634873
Victoria Stout,19554652
Stevenson Davenport,18024562
John Park,18264382
Marisa Levine,1868479232
Vaughn Carr,194548131
Verna Brooks,18104583
Morgan Larson,18945782
Melisa Chaney,18004873
Minnie Rasmussen,19865903
Benson Aguilar,192941226
Richards Marshall,182242033
Marcia Hubbard,1916420390
Viola Armstrong,1982591340
Logan Walker,194249133
Walters Bernard,1897458384
Mccormick Stark,19325922
Holden Tate,194457120
Corinne Head,199252737
Marsha Wyatt,188743236
Yolanda Ward,18315642
Rosalie Stanton,198254934
Tate Booth,18705573
Bass Clarke,1919489238
Lucile Cantu,1945432314
Torres Short,185645831
Gracie Padilla,1915410209
Betsy Webb,18084593
Simmons Sanford,1872562209
Susana Dillon,18044563
Miranda Hooper,18384013
Hobbs Rodgers,184248535
Natalia Love,19085603
Mcbride Glenn,184649137
Wheeler Bolton,198552536
Mcintyre Baker,1810519287
Henry Perry,1940568320
Witt Garrison,1982483398
Mills Best,1896590373
Wade Roberts,19755212
Turner Vang,1848571383
Benton Bright,1997535346
Parks Rivera,18845213
Merrill Cantrell,199849821
Jodi Valencia,1943512254
Drake Cabrera,189050832
Riddle Todd,184552036
Mandy Mullen,1952415276
Kim Spears,19454152
Sally Emerson,18974522
Alexandra Dudley,196341435
Kathy Knight,197058223
Fox French,198152026
Mary Wise,183947227
Harrington Benton,19535113
Stacey Blackburn,19854732
Mays Meyer,195958632
Ora Mcleod,18485603
Pitts Nunez,1847535268
Flores Adams,1991429395
Gould Gordon,1807510353
Chavez Mullins,1830547268
Schroeder Noel,184050639
Alvarado Burton,189351824
Acosta Hopkins,18374872
Nettie Hunt,1953527220
Woodward Rice,1859502380
Howe Acevedo,190643638
Ericka Gates,18925562
Love Jarvis,193252732
Marianne Roy,185641436
Schneider Greer,18615532
Brigitte Owens,186852821
Morin Molina,1917547296
Dean Richardson,19715753
Terry Davidson,1880536284
Susanne Lamb,19605452
Lynda Erickson,182651326
Short Bauer,1986561241
Zelma Cervantes,1831446337
Mayer Gregory,192947429
Boyer Singleton,18425802
Annie Morrow,1971452345
Hewitt Mccray,19794352
Hammond Dickerson,1882599325
Elisabeth Guy,19395432
Brianna Jimenez,194745929
Duncan Preston,18035772
Ines Franks,19505673
Maureen Palmer,1885599257
Nunez Mccall,19345063
Fletcher Little,18074693
Eva Bird,19224663
Graciela Delgado,190347635
Connie York,188340237
Tammi Mcintosh,18244673
Sabrina Lott,18054143
Gwen Robbins,1850578215
Powell Day,188153225
Jill Irwin,19064813
Lola Briggs,199444427
Byers Prince,186359737
Mia Cotton,193546635
Denise Reyes,1938421366
Casandra Mosley,1893496390
Greer Miller,1995404386
Huff Rutledge,19485863
Pittman Gilliam,196840925
Sutton Hyde,1922501359
Jennings Waller,1881560385
Potts Howe,1813434379
Holloway George,189253829
Weeks Crane,18664463
Roth Conner,185660027
Evans Warner,19564473
Mcintosh Williams,195946437
Bray Vega,1992520343
Tyson Trujillo,18904442
Hazel Garza,1836579342
Haley Workman,19164202
Ingrid Sweet,18085612
Lynne Frazier,19464993
Rosanne Bryan,196951736
Hurley Melton,1803515346
Cooke Hardin,19374983
Beck Graves,19215172
Brady Dale,1919478247
Melva Cross,1894483281
Barbra Mccarthy,1912532378
Edna Bridges,1942503368
Jessie Evans,18044753
Webb Black,19864982
Bette Howell,1893521217
Stout Benson,19014783
Burt Douglas,18454762
Angelita Hines,199646824
Hess Powers,19964082
Ochoa Barton,18305053
Elaine Bender,18224963
Sandra Houston,18435462
Byrd Merrill,19155242
Montgomery Mcdaniel,1951591218
Lawson Bruce,190241632
Rowena Clements,18655932
Belinda Walls,18505603
Fisher Swanson,1814585200
Alison Pitts,192253826
Coffey Rose,18774102
Danielle Solis,194150732
Heidi Griffin,1898455380
Goldie Gallegos,195655625
Bertie Fields,1932547206
Kellie Mays,194553628
Cross Pratt,184146230
Atkins Foley,1826502251
Miriam Butler,19944952
Burnett Medina,181655021
Lindsey Buckley,190557433
Cathryn Flowers,1819507374
Cecile Cline,1997411311
Marguerite Mclaughlin,19004633
Estes Carlson,18744482
Sheri Silva,189745621
Maynard Joyner,1855479384
Tanya Dominguez,18435033
Perez Morin,1829505204
Strong Roach,18284453
Saundra Hobbs,1939439289
Michael Berg,187746821
Malinda Mcclain,1992428286
Dominique Morales,19855653
Ada Wheeler,19885272
Myrna Leblanc,1935537306
Gena Beasley,18544283
Barrett Livingston,1964531271
Felecia Haynes,19465483
Joy Hampton,18615533
Park Camacho,1983595296
Smith Clay,18954303
Hallie Hale,192043035
Rasmussen Guerrero,19324142
Ball Patterson,1947599257
Vilma Alvarez,1901438219
Aisha Dennis,18854072
Sandoval Riley,1954555206
Maribel Robles,186855829
Nora Clark,195849425
Bridgette Hanson,1990454283
Ward Santana,184256427
Phyllis Burks,181542736
Christa Contreras,1851409351
Lauren Stewart,182543630
Harmon Anderson,1987577373
Marian Holmes,18834883
Calhoun Gonzales,1826518244
Elba Barron,19124072
Carpenter Chase,188746926
Barnes Wynn,1978545332
Harvey Hood,1932557339
Chris Lloyd,19484153
Washington Acosta,199143038
Melendez Ross,18975473
Harrell Newton,1824574209
Fleming Shaffer,186149827
Dillon Salinas,185946333
Sargent Curtis,1919432354
Eddie Whitfield,18575742
Velazquez Williamson,1866585211
Helga Thompson,19305263
Coleen Cole,187644137
Lolita Lee,1844519392
Nola Dyer,198440428
Herman Garner,18745243
Stokes Sargent,191352833
Clara Vaughan,191558126
Buckner Fitzpatrick,19764603
Constance Beach,1935496395
Valenzuela Mckenzie,190542130
Hoffman Snider,194459122
Nancy Morrison,198658630
Robertson Stein,198345528
Hopkins Sharpe,18925873
Dianne Walter,196749934
Heather Santos,1926532268
Louella Dodson,1863400254
Rebecca Graham,1967551227
Barry Buckner,19254562
Angie Berger,19614803
Patton Wright,19394013
Garner Cash,18134373
Tonia Heath,19515202
Ava Boyle,1935597398
Stuart Wilson,199759336
Hays Frye,1991586275
Lucy Shepard,19035433
Maldonado Avery,1972566308
Irwin Lawrence,194342820
Charles English,1962448312
Tisha Freeman,195353732
Mcdonald Harris,188455438
Bonnie Dunlap,1953534216
Annmarie Drake,18415703
Warren Paul,18584042
Suzanne Cooke,19435153
Shelley Goodman,19665832
Raymond Hoffman,18304593
Preston Beck,1962551241
Ollie Jensen,18855632
Barrera Rosales,1806514203
Giles Phelps,189152136
Latonya Hill,1827586342
Alba Mckee,187351230
Kay Holden,19264402
Delacruz Collier,19085752
Caitlin Cain,1824462318
Mollie Mckay,1854490340
Bolton Harrison,1833584236
Debora Elliott,19345563
Rose Hansen,185643929
Tucker Oconnor,18434392
Horn Wood,1909457322
Mcmillan Kaufman,1826595225
Morales Manning,1800576354
Opal Christensen,18214573
Emma Herrera,18215843
Clements Olson,180859032
Julie Rosario,180246524
Kristina Ewing,1940559340
Alexander Wells,19575093
Susanna Gillespie,19654872
Irene Edwards,18765853
Gay Shaw,194753936
Manuela Summers,18364343
Fannie Macdonald,185149835
Catherine Bailey,19255412
Vanessa Mccullough,18945793
Mcfadden Morgan,19804022
Bowen Shepherd,19225773
Price Zimmerman,1948549305
Sonya Holman,186954822
Abigail Brennan,184742236
Teresa Stokes,1907409252
Tasha Washington,195443524
Beulah Wagner,1899556225
Hicks Ortiz,18154962
Hayden Knox,1919561250
Norris Rivers,1826449211
Elizabeth Schwartz,190944023
David Tanner,19615952
Carr Knowles,196955420
Rosa Estrada,18674313
Amelia Parsons,19305443
Mullins Brady,193157931
Charlotte Macias,18145983
Compton Cook,19365552
Kari Sweeney,19144402
Marks Pacheco,19464583
Latasha Downs,184456024
Diann Sims,1931583218
Trisha Monroe,183947321
Lucia Pennington,185951528
Margo Henderson,19944042
Margaret Mitchell,1823509279
Kirby Diaz,1918453216
Mclean Franklin,1911446339
Mcclure Pope,186546520
Kaye Mcintyre,196955236
Pollard Allison,1948480295
Griffin Sullivan,1974436344
Valencia Pena,19344042
Tabatha Cooley,1881541285
Henrietta Roberson,181051332
Kirsten Wooten,1982546328
Moon Espinoza,188952636
Janette Farmer,1914409264
Foster Maldonado,185659725
May Guthrie,1869544339
Deloris Fischer,191642321
Phelps Frederick,1842520272
Jarvis Cote,1920463382
Joann Kemp,19984333
Grimes Alston,19804702
Valeria Smith,188958438
Sophie Spencer,1950506348
Josie Mercer,1894584229
Snider Zamora,195241930
Lelia Peters,19104062
Russo Mcconnell,18034333
Palmer Cunningham,1805460316
Frye Miranda,18065123
Colette Hoover,19805193
Julianne Benjamin,18434263
Ramona Gutierrez,19014732
Nelson Blanchard,197460034
York Gardner,18454802
Alberta Dillard,1912584232
Tami Sheppard,1897510304
Leanne Mckinney,1820493359
Rogers Case,181755524
Beatrice Hurst,1837446297
Lidia Castaneda,194742724
Anderson Landry,1808563347
Aguilar Duran,19564693
Tabitha Sherman,19575523
Nelda Huff,1868550223
Lilia Flynn,193253222
Silva Haley,19375142
Anita Vargas,1822574322
Buck Bond,1986402381
Janie Blevins,19444712
Mosley Lara,18854192
Carmen Decker,19685432
Claudette Morse,1998533365
Roxanne Goff,196046722
Carey Horton,190155524
Amparo Price,19095722
Deanne Joseph,19424842
Lorene Deleon,18705132
Carson Albert,184351439
Rhea Conley,187154924
Bettye Glover,18055693
Betty Sharp,193857937
Richmond Fletcher,1854403290
Milagros Conrad,190757331
Tricia Koch,189244720
Terri Mcbride,195447321
Merritt David,191452835
Shauna Pearson,183959221
Susan England,1888494262
Nona Page,1988457399
Blanca Mccarty,187053835
Cherry Mills,1989596243
Mccall Mueller,183145636
Robbie Olsen,18884653
Jami Torres,18544092
Stewart Le,1805565346
Rutledge Kim,1850492264
Twila Mcgee,19605762
Parker Buck,18465113
Natasha Holder,19094052
Beth Suarez,183246330
Noreen Nolan,1831526265
Shawna Cochran,192551825
Iva Moreno,193353322
Harris Castro,198048720
Lilian Reese,1906510377
Ginger Lawson,18305873
Head Pugh,19815333
Rosetta Dejesus,197841431
Karina Hurley,186147129
Hayes Rivas,1998433398
Gomez Fox,18115393
Janine Hensley,18354503
Orr Craft,19654533
Lenore Mcneil,1892433253
Elena Nguyen,198450228
Savage Stafford,191344428
Sadie Terrell,18215633
Jensen Hendricks,1978542398
Doreen Jacobs,18615823
Camacho Rogers,19164653
Salinas Stanley,198642825
Erna Neal,1898587327
Allie Christian,1921585245
Concetta Duke,19155413
Ola Cobb,19284883
Vinson Mathews,1881541228
Cotton Powell,192948225
Rivas Mcgowan,18534842
Blackwell Brown,185648127
Jayne Gallagher,193948537
Nielsen Vinson,19854513
Jeanne Leon,180459031
Alvarez Gray,1859596339
Young Robertson,18734943
Oneal Montgomery,180859929
Leonard Donovan,186748128
England Wilkins,185059131
Flowers Fleming,1814597257
Margie Oneil,1861430364
Gutierrez Woods,1958449290
Penelope Curry,18094742
Lucille Carrillo,189942930
Evelyn Kelly,1967513294
Christian Carpenter,18364082
Vasquez Bell,195956320
Haley Ryan,18405392
Hines Avila,1827415361
Barbara Hatfield,18295052
Harper Russo,194342129
Nita Giles,18165232
Baxter Byers,19065552
Gwendolyn Tyson,199044327
Huffman Hammond,181744221
Wynn Eaton,1886441281
Liza Rowe,1804548266
Delgado Yates,185841730
Vazquez Rodriguez,192152324
Allison Jones,1906571291
Wilson Dickson,1892479297
Bonita Ayers,183044731
Fitzgerald Lester,199955429
Whitaker Branch,1844401313
Sanchez Maynard,194551831
Lois Shields,191457535
Melton Bentley,197859836
Sara Bradford,188559833
Lula Donaldson,1893551236
Goodman Cardenas,186955430
Sophia Herring,19895203
Marsh Norris,19105263
Lane Wolfe,19855783
Schmidt Wade,186155428
Workman Collins,18174073
Shana Watts,197357438
Sandy Phillips,186352428
Watkins Stevens,1895567217
Baldwin Richards,199349831
Therese Mcmillan,184959438
Ford Simmons,18495112
Enid Combs,18434163
Travis Winters,1968454227
Mccullough Santiago,1943496206
Gordon Calhoun,180945225
Celina Marks,19015932
Fowler Mendoza,180954139
Serrano Harmon,197055521
Bradley Mcclure,19184702
Shaffer Nash,193047020
Bobbi Ball,18314492
Crystal Finley,19194892
Huber Blackwell,1970460336
Kelley Cox,190540433
Stefanie Maxwell,18284652
Frankie Hicks,1811442367
Alana Odom,19845652
Cantrell Hebert,185343536
Cora Lindsey,181741033
Nieves Reilly,186856134
Kane James,19704433
Araceli Sears,1979598359
Hudson Battle,1949537278
Mcguire Mayer,1913502393
Whitney Floyd,19085933
Watson Salazar,19144752
Yang Beard,1912464327
Patrice Ruiz,191056938
Kennedy Austin,19255603
Simpson Haney,1941567240
Clarissa Finch,18364363
Jean Gibbs,1813593270
Elvia Reid,18484003
Humphrey Bass,1828559240
Barlow Odonnell,1926592367
Anastasia Jennings,18794353
Hampton Allen,191952327
Elise Cohen,19364742
Heath Tucker,195658036
Katy Kent,1808400359
Amy Larsen,1957411315
Tamika Perez,19845972
Gamble Harding,19294513
Kelley West,18065972
Jane Good,1834465372
Adele Sykes,196859421
Tara Jacobson,18795312
Oconnor Ramos,18885113
Mcdaniel Aguirre,18164523
Key Wong,194342522
Miller Bates,19434652
Terra Key,1972463302
Adrian Hull,1803522247
Stanley Ashley,18265902
Mari Blake,187559733
Lesley Huffman,191059326
Wilkins Chapman,1902590222
Jillian Dixon,181658726
Clayton Mccormick,187546523
Jenkins Jackson,19274502
Ruiz Joyce,1842467376
Williams Hughes,19025722
Sharpe Browning,19695712
Millie Oneal,18484643
Lillian Richmond,1914541334
Brock Henson,19575482
Ella Blair,193841526
Rena Riddle,18334963
Holly Oliver,1985457292
Tonya Strong,1879430210
Gates Greene,197449738
Rosales Meadows,18864372
Winters Kane,18515633
Whitney Anthony,18925732
Pamela Blankenship,191355138
Gabriela Bowen,1825483234
Jeannine Barry,1979599299
Sallie Rodriquez,1940510250
Branch Warren,1952470241
Peck Rosa,1986495350
Florine Harper,1831421310
Buckley Frank,1972498255
Andrews Lewis,19055833
Grant Byrd,195557438
Katie Juarez,19944133
Day Johnston,19924632
Blankenship Gross,1876425386
Kelli Taylor,1901413238
Walker Foreman,19944223
Letha Bishop,183852130
Doyle Lang,19675443
Jana Townsend,1830498232
Maura Leach,188859736
Janice Ochoa,18614583
Lila Vance,1836417272
Wooten Carey,199556629
Bean Burke,19934013
Roseann Holloway,199640734
Inez Golden,18434463
Owens Parks,18985813
Larson Castillo,196356733
Snyder Chang,1919504377
Lori Gill,1864416297
Massey Everett,18535622
Patti Barker,18055582
Justine Schroeder,1870544254
Franks Rhodes,19784342
Hardy Henry,18145152
Mccray Pruitt,18305793
Chrystal Weeks,187450031
Brooks Pate,18415562
Guadalupe Shannon,1989539343
Karyn Howard,19615962
Combs Andrews,19125342
Kendra Baldwin,1810424206
Dixie Strickland,196250327
Ofelia Patton,18684972
Maritza Stephenson,1944403362
Matilda Chambers,18624902
Beard Duffy,18424752
Kidd Raymond,18785613
Meyers King,18915392
Bryant Wilkinson,186643323
Eve Keller,1876513284
Harriett Figueroa,18075552
Jewel Carson,194743622
Mckinney Weber,198156725
Knox Luna,18434773
Ewing Valentine,196846928
Lowery Dorsey,1911475364
Meghan Osborn,18294733
Joyce Kelley,180459537
Shanna Huber,180340321
Mcpherson Holcomb,1957418308
Payne Ortega,1949439337
Margret Gould,1813527242
Decker Gilbert,19455622
Fern Bennett,1857554204
Gonzalez Maddox,187558823
Angeline Mcdonald,186052833
Olive Snow,18275373
Walter Reynolds,183855731
Bender Clayton,197354027
Sheryl Callahan,1827540211
Vance Turner,19254733
Michelle Payne,190147623
Osborn Massey,186341524
Blake Harrington,1939546263
Mclaughlin Mason,199053028
Hendricks Whitney,197653425
Cervantes Hayes,19594903
Dionne Sellers,19774183
Wallace Hartman,19805972
Peggy Morris,18064143
George Griffith,193040533
Kerr Merritt,18115832
Debra Garrett,199848726
Isabelle Velasquez,190544424
Dudley Murray,1861505261
Molina Moss,1960523242
Cortez Moore,187751728
Stephens Foster,19285013
Boyd Stevenson,1800512210
Gilmore Franco,19114182
Cardenas Oneill,18474662
Gay Grant,18535632
Ruby Boyer,191347538
Mann Munoz,1807499322
Angela Nieves,18235663
Sullivan Barlow,19324582
Davenport Porter,1824557219
Kristen Fowler,194541628
Luann Richard,1910451394
Chandra Garcia,185141522
Berg Horn,18654262
Craft Barrett,18864652
Aurora Kramer,1937569304
Joni Hudson,187753824
Hale Vincent,1805442212
Hunter Faulkner,18154502
Donovan Bean,19154193
Imogene Miles,187156527
Marjorie Hodge,189559337
Tyler Johns,1938581333
Nell Mcfadden,187255922
Kim Green,18984312
Adrienne Becker,189459037
Dyer Gomez,199245533
Simon Crosby,18334312
Shelia Malone,1927419351
Helena Alvarado,19125433
Lowe Petersen,180858138
Monroe Doyle,1935590357
Cathy Harrell,1956467221
Cheryl Ford,1956574339
Mitzi Dotson,18735733
Leanna Fry,1946532228
Graves Holland,1971425331
Page Savage,190350536
Elva Lindsay,19895102
Faulkner Marquez,197854739
Tameka Patrick,192053326
Fischer Romero,1941559289
Cobb Salas,1879447257
Rios Pace,1823410342
Sweeney Stephens,186148737
Odom Mooney,1999437256
Alissa Alford,18844813
Brewer Lynn,18795823
Socorro Walsh,18725213
Isabel Guzman,1973599389
Patrick Lucas,1899526220
Aileen Barber,18594992
Rhodes Robinson,192247826
Butler Carver,1903463225
Aurelia Roth,183646937
Elliott Mcdowell,1966513231
Swanson Fuentes,18855422
Louise Wiggins,1964408271
Evangelina Hancock,180650931
Jacquelyn Colon,1984418336
Espinoza Cortez,1893493200
Lorena Hays,1811439360
Virginia Newman,1804551230
Imelda Buchanan,181257222
Britt Mercado,193258923
Hattie Bradley,18314362
Claire Dalton,18855283
Pace Carney,193159324
Ray Farley,1917501399
Molly Kirk,186240323
Essie Kirkland,195546627
Durham Alexander,18095192
Patsy Valenzuela,18034213
Della Church,1889489324
Murphy Schmidt,18565753
Frances Gentry,19795023
Bruce Perkins,18805803
Trudy Sexton,1952453221
Burgess Sparks,198552739
Joanna Ray,199944424
Lessie Lowery,19154273
Dominguez Carroll,1869432226
Castillo Hernandez,1892471378
King Burch,18164673
Terry Morton,18324943
Kinney Forbes,186350320
Hooper Coleman,19515773
Cornelia Tran,19924362
Campos Burnett,183545322
Bessie Mathis,18275713
Reynolds Poole,1995535346
Cote Petty,187342830
Montoya Martinez,19545873
Staci Parrish,182144139
Walton Chan,19904572
Brooke Hopper,180459823
Spears Whitley,18614932
Doris Travis,1913533389
Erin Sawyer,185740923
Nichole Coffey,18854862
Cohen Mayo,190650020
Bethany Sosa,19115872
Briggs Ferguson,1824431343
Burns Farrell,18044062
Noemi Brock,18344232
Foley Talley,184650536
Reyes Hamilton,183656239
Kirkland Simpson,184359420
Juliette Tillman,18844732
Shelton Barnett,18385152
Reed Thomas,1957472366
Gail Harvey,1894518374
Eloise Carter,1921439201
Dodson Mejia,1807581352
Browning May,1955525305
Daisy Clemons,1965479380
Alejandra Potter,18925343
Mathews Mclean,186846228
Kimberley Berry,1932487274
Marie Mcguire,1871582389
Misty Banks,1870596233
Petra Mann,1921431278
Monique Burns,1858415377
Castaneda Whitaker,18334492
Marietta Stone,191444231
Carrie Fuller,188347124
Candy Ratliff,1978510389
Summers Ramirez,189849332
Kate Rich,1877582203
Keri Randolph,1811520267
Hester Ellison,191740527
Kara Guerra,181558530
Gibson Campos,194841439
Whitfield Bullock,19955973
Sims Jordan,1907564315
Soto Saunders,188655724
Jenna Murphy,19965762
Cleveland Walters,1985558358
Eugenia Kerr,1822445252
Puckett Puckett,18665542
Goff Scott,1827428218
Rivera Montoya,1888558245
Anthony Terry,1944490363
Allyson Skinner,18364523
Bradshaw Dawson,195443238
Josefina Cruz,1860481329
Rhonda Slater,18425253
Simone Knapp,1839569261
Gale Rios,19725364
Pennington Gay,19374253
Janna Kidd,191250925
Kent Lane,1913457370
Tanner Charles,1991499234
Alfreda Simon,18894013
Bailey Nichols,18355152
Cooper Ferrell,19955412
Nikki Brewer,190952033
Small Valdez,1935442370
Allen Norman,181047937
Florence Norton,1995502215
Wilkerson Reed,181742834
Adela Owen,19454612
Annabelle Nixon,19345203
Emilia Nelson,19625572
Boone Hickman,19994423
Candace Melendez,189445537
Wilcox Waters,18404113
Roberson Daugherty,1864599313
Kristy Hart,1983555335
Gill Wilder,1878571266
Eileen Pickett,198359521
Nina Chavez,197642532
Cooley Trevino,195258434
Sanders Davis,19474813
Thompson Ramsey,1982511266
Valerie Lowe,19294513
Ross Hawkins,186956529
Jefferson Woodward,1977429213
Cecilia Wilcox,1824432364
Miles Velazquez,1964578317
Bettie Woodard,198058632
Maggie Dean,1888527236
Franco Rowland,188052639
Valarie Randall,1989549378
Ann Mcmahon,1863467292
Jeannie Velez,184449032
Lavonne Holt,1961581336
Wilder Hinton,19905033
Marcella Jefferson,183742621
Tracey Higgins,19414112
Prince Ayala,1809539243
Willis Sloan,185151529
Kaufman Horne,182242635
Ida Barnes,1982402252
Consuelo Keith,1959549214
Ortiz Peterson,1923511248
Johns Compton,18135092
Morgan Sutton,1998453247
Ortega Hunter,19355753
Warner Wolf,1825486314
Terrie Soto,19155763
Abby Casey,1972446337
Santiago Conway,198254939
Jerri Snyder,19854193
Andrea Peck,182052321
Gladys Mendez,19494052
Toni Abbott,19574593
Bush Fulton,18365862
Lesa Vaughn,19574753
Mitchell Riggs,198753726
Holder Moon,18635443
Wiggins Michael,1848424254
Dona Hodges,1907520297
Karin Barrera,19835992
Brandy Hess,18214612
Hutchinson Myers,194648429
Walls Fisher,187058420
Luella Steele,197155334
Silvia Chandler,181350528
Mooney Humphrey,1986545206
Rowe Galloway,1889524212
Summer Hardy,1804593284
Marshall Stuart,18135192
Quinn Duncan,184243825
Leticia Lopez,199846539
Zamora Navarro,1969541354
Rosalinda Burris,18085403
Weber Rocha,1959472254
Cole Marsh,182448221
Carlene Francis,19115262
Kelsey Levy,1971521244
Cameron Sanders,18344533
Hart Mcfarland,183242030
Sweet Flores,1907571225
Santana Cherry,1809574247
Brown Atkins,1846540377
Freda Atkinson,1948427355
Solis Langley,19884872
Latoya Moody,183146036
Griffith Vasquez,1859511261
Bennett Hendrix,195249631
Loraine Shelton,18515333
Zimmerman Nielsen,189351034
Rachelle Klein,187346837
Stephanie Wiley,1883455245
Lorie Barr,1998550287
Underwood Roman,18035022
Finley Mack,19455123
Herrera Patel,188852927
Ware Reeves,188041720
Jennifer Long,19015023
Darlene Whitehead,188855922
Noelle Gaines,19935672
Guy Bonner,1891405375
Leona Kline,182958421
Rhoda Gibson,19365983
Tia Orr,1834595204
Garrison Quinn,19604573
Ashley Watkins,184742920
Phillips Arnold,187058639
Hurst Bray,18014692
Lyons Villarreal,18845952
Taylor Watson,183954437
Dorothea Weaver,1826484248
Earnestine Pollard,19944042
Lakisha Leonard,1841527239
Hill Jenkins,196455127
Meyer Rollins,185542029
Laurel Moses,1974480354
Yvonne Lancaster,19965472
Rice Daniel,192345828
Martinez Frost,197443028
Leta Bowers,18095483
Wells House,191940439
Callie Dunn,198150020
Ethel Cannon,1885598257
Rachel Bowman,1935541365
Blevins Baxter,18615782
Linda Serrano,18264852
Mcdowell Pittman,191056330
Noble Fitzgerald,1934421231
Jones Cummings,189756923
Jeannette Kinney,19254203
Glenda Noble,18725042
Lamb Ingram,188751737
Elnora Wallace,180056437
Dickerson Boone,19115872
Hilary Russell,198155325
Mckee Willis,185846225
Wilda Delaney,18414383
Selma Moran,199052921
Vicki Solomon,186149538
Erickson Mcknight,19025112
Marion Campbell,1818441253
Bertha Weiss,1869525396
Claudia Hutchinson,18734592
Carrillo Fernandez,185854626
Dickson Ware,1905505391
Lena Estes,1986530287
Shelby Lynch,191541521
Megan Yang,18935742
Janet Durham,194342439
Trina Bradshaw,19645793
Edwina Caldwell,1874510336
Coleman Sandoval,19074332
Pate Thornton,18374612
Harding Walton,1814419297
Townsend Glass,18884472
Robert Cleveland,199851920
Deena Webster,182747122
Mason Hewitt,18614292
Dollie Matthews,198455522
Velasquez Sampson,19565262
Jacklyn Hogan,18355683
Pickett Burgess,1878566382
Boyle Mccoy,183950235
Calderon Mcpherson,1977512333
Melody White,18505503
Henderson Osborne,197041928
Virgie Middleton,199744334
Mejia Goodwin,18404992
Copeland Ellis,185258621
Casey Meyers,1852515394
Mariana Wall,1910446377
Lizzie Gamble,1915598225
Kathleen Gonzalez,181443825
Berger Vazquez,1918423242
Dotson Johnson,196243929
Traci Lyons,19204383
Marcie Obrien,19324073
Frank Sanchez,197951425
Shawn Chen,19404193
Chang Rush,194351138
Malone Delacruz,191359937
Lang Bush,1996403331
Elsie Kennedy,1802520263
Abbott Welch,196652539
Nolan Gilmore,19534862
Effie Adkins,1860446375
Rosanna Copeland,181849729
Macias Logan,1990479242
Alisa Britt,1907466353
Liliana Boyd,1875470294
Vang Lambert,18885683
Bridges Small,181340921
Rojas Schneider,189658736
Lynch Martin,193650935
Stein Herman,19925872
Rivers Young,180950623
Erica Witt,195354521
Mccarthy Hahn,18144353
Elisa Spence,191551520
Celia Burt,185345427
Walsh Cooper,188246926
Cruz Madden,191046935
Jeanie Calderon,188248227
Charmaine Parker,18665072
Penny Crawford,1925548380
Shaw Pierce,197149228
Clemons Wilkerson,190641921
Catalina Tyler,193355728
Bartlett Hall,1914587286
Deborah William,1872504216
Alisha Underwood,19205272
Amie Hayden,19925703
Peterson Kirby,1895550327
Sondra Ballard,1849423213
Lorna Schultz,1879412375
Sofia Baird,1885516350
Fulton Justice,18005363
Elvira Daniels,180154738
Cleo Potts,191946037
Fitzpatrick Bartlett,19445213
Landry Craig,196245131
Chapman Nicholson,1961579399
Earline Rojas,192358723
Burch Cameron,189056131
Owen Bryant,190244521
Janell Booker,1802560246
Morrison Grimes,1858590319
Hinton Stout,1863451208
Charlene Davenport,1806499358
Bentley Park,183250632
Murray Levine,180642134
Josefa Carr,18315063
Dolly Brooks,1891532309
Francis Larson,18664673
Martin Chaney,186354633
Contreras Rasmussen,1846408320
Esther Aguilar,18275462
Floyd Marshall,19905722
English Hubbard,1948574398
Deana Armstrong,1959532360
Ryan Walker,18214842
Tiffany Bernard,185950330
Pena Stark,19004383
Padilla Tate,18405612
Nicole Head,187245929
Bernard Wyatt,1924538382
Todd Ward,18844002
Carter Stanton,1906478356
Armstrong Booth,1874589241
Eaton Clarke,186440922
Curry Cantu,1871499370
Shepard Short,1814473368
Antonia Padilla,189056127
Shepherd Webb,19154653
Benita Sanford,1952536322
Mindy Dillon,19585122
Garrett Hooper,182752627
Johnston Rodgers,19384473
Brenda Love,198449327
Melissa Glenn,186059222
Weiss Bolton,19965153
Jacqueline Baker,19625143
Deann Perry,1845460317
Rush Garrison,19634012
Ivy Best,189259825
Nannie Roberts,19325032
Lynnette Vang,19865473
Mcmahon Bright,190146339
Angel Rivera,186559821
Gina Cantrell,1915587324
Rosalind Valencia,19785172
Luz Cabrera,1819413215
Wong Todd,189656228
Madeleine Mullen,185856721
Amber Spears,1921543355
Lana Emerson,18805182
Martha Dudley,18344152
Pierce Knight,18745872
Antoinette French,196441934
Stephenson Wise,1836543280
Priscilla Benton,18144733
Houston Blackburn,19904963
Noel Meyer,18865652
Gregory Mcleod,19894302
Reese Nunez,1854468307
Marta Adams,189352226
Lester Gordon,19085682
Madelyn Mullins,1897468364
Riley Noel,18884593
Kaitlin Burton,183057920
Monica Hopkins,183156139
Rochelle Hunt,198856139
Bradford Rice,187852924
Suarez Acevedo,18144432
Rich Gates,19185072
Courtney Jarvis,18845923
Adkins Roy,187944223
Barr Greer,185354126
Selena Owens,183459426
Vincent Molina,191248530
Darla Richardson,1986434238
Sharon Davidson,19025573
Debbie Lamb,197554024
Rollins Erickson,18235963
Daniels Bauer,19035162
Mendoza Cervantes,197545638
Robyn Gregory,1821494221
Christi Singleton,1956583363
Morton Morrow,182744235
Herring Mccray,18944683
Concepcion Dickerson,180740425
Aguirre Guy,1836542212
Jamie Jimenez,1888498379
Mckay Preston,19535502
Sarah Franks,19794352
Stanton Palmer,1906403218
Guthrie Mccall,186646826
Jackson Little,19755642
Myers Bird,18745292
Sparks Delgado,1848440243
Benjamin York,191745532
Keller Mcintosh,189549529
Emerson Lott,187743237
Carolyn Robbins,181451037
Tran Day,183055636
Weaver Irwin,19974503
Ester Briggs,19875983
Chen Prince,193654331
Katrina Cotton,1960543303
Carver Reyes,1817592366
Elma Mosley,19025872
Lloyd Miller,193454532
Stella Rutledge,197252436
Neva Gilliam,1904585397
Shari Hyde,1861466354
Green Waller,1917593200
Corine Howe,18004372
Wyatt George,183740937
Mcknight Crane,197740925
Maddox Conner,19174292
Diana Warner,198557625
Lauri Williams,19945872
Laurie Vega,1826455377
Cynthia Trujillo,1979501367
Rene Garza,1864435266
Porter Workman,190858336
Brennan Sweet,199843825
Dixon Frazier,1951468302
Beatriz Bryan,195557027
Lacy Melton,1899510319
Susie Hardin,1870430203
Lopez Graves,19164503
Adriana Dale,18225323
Bianca Cross,196051833
Hubbard Mccarthy,1944464310
Willa Bridges,19685402
Christina Evans,19935232
Rosemarie Black,18474183
Reeves Howell,1959549284
Carol Benson,19035662
Carroll Douglas,19835823
Rodriquez Hines,19534413
Mcconnell Powers,198155829
Fields Barton,1978419261
Lara Bender,18045623
Deirdre Houston,1823548239
Georgette Merrill,197240835
Kitty Mcdaniel,197454823
Jan Bruce,1894515286
Lindsay Clements,19264473
Curtis Walls,1984573320
Gross Swanson,180657428
Ruth Pitts,198640132
Manning Rose,18725463
Gaines Solis,182348323
Lucinda Griffin,19685162
Esperanza Gallegos,192450338
Lupe Fields,191645733
Velma Mays,1989553374
Leon Pratt,181746132
Christie Foley,1904453315
Jolene Butler,1875423252
Good Medina,1870469310
Strickland Buckley,181158022
Claudine Flowers,182741331
Allison Cline,18785432
Amalia Mclaughlin,1826584221
Judith Carlson,18954452
Evangeline Silva,189540723
Christine Joyner,1839421305
Velez Dominguez,19804333